[
    {
        "_id": "b-1010",
        "_parentId": "a-1000",
        "_type": "block",
        "_classes": "",
        "title": "",
        "displayTitle": "",
        "body": "",
        "_trackingId": 1
    },
    {
        "_id": "b-1020",
        "_parentId": "a-1000",
        "_type": "block",
        "_classes": "",
        "title": "",
        "displayTitle": "",
        "body": "",
        "_trackingId": 2
    },
    {
        "_id": "b-1030",
        "_parentId": "a-1000",
        "_type": "block",
        "_classes": "",
        "title": "",
        "displayTitle": "",
        "body": "",
        "_trackingId": 3
    },
    {
        "_id": "b-1040",
        "_parentId": "a-1000",
        "_type": "block",
        "_classes": "",
        "title": "",
        "displayTitle": "",
        "body": "",
        "_trackingId": 4
    },
    {
        "_id": "b-1045",
        "_parentId": "a-1000",
        "_type": "block",
        "_classes": "",
        "title": "",
        "displayTitle": "",
        "body": "",
        "_trackingId": 5
    },
    {
        "_id": "b-1050",
        "_parentId": "a-1000",
        "_type": "block",
        "_classes": "",
        "title": "",
        "displayTitle": "",
        "body": "",
        "_trackingId": 6
    },
    {
        "_id": "b-1060",
        "_parentId": "a-1000",
        "_type": "block",
        "_classes": "",
        "title": "",
        "displayTitle": "",
        "body": "",
        "_trackingId": 7
    },
    {
        "_id": "b-1080",
        "_parentId": "a-1000",
        "_type": "block",
        "_classes": "",
        "title": "",
        "displayTitle": "",
        "body": "",
        "_trackingId": 8
    },
    {
        "_id": "b-1090",
        "_parentId": "a-1000",
        "_type": "block",
        "_classes": "",
        "title": "",
        "displayTitle": "",
        "body": "",
        "_trackingId": 9
    },
    {
        "_id": "b-2000",
        "_parentId": "a-2000",
        "_type": "block",
        "_classes": "",
        "title": "",
        "displayTitle": "",
        "body": "",
        "_trackingId": 10
    },
    {
        "_id": "b-2010",
        "_parentId": "a-2000",
        "_type": "block",
        "_classes": "",
        "title": "",
        "displayTitle": "",
        "body": "",
        "_trackingId": 11
    },
    {
        "_id": "b-2030",
        "_parentId": "a-2000",
        "_type": "block",
        "_classes": "",
        "title": "",
        "displayTitle": "",
        "body": "",
        "_trackingId": 12
    },
    {
        "_id": "b-2040",
        "_parentId": "a-2000",
        "_type": "block",
        "_classes": "",
        "title": "",
        "displayTitle": "",
        "body": "",
        "_trackingId": 13
    },
    {
        "_id": "b-2050",
        "_parentId": "a-2000",
        "_type": "block",
        "_classes": "",
        "title": "",
        "displayTitle": "",
        "body": "",
        "_trackingId": 14
    },
    {
        "_id": "b-2060",
        "_parentId": "a-2000",
        "_type": "block",
        "_classes": "",
        "title": "",
        "displayTitle": "",
        "body": "",
        "_trackingId": 15
    },
    {
        "_id": "b-3000",
        "_parentId": "a-3000",
        "_type": "block",
        "_classes": "",
        "title": "",
        "displayTitle": "",
        "body": "",
        "_trackingId": 16
    },
    {
        "_id": "b-3010",
        "_parentId": "a-3000",
        "_type": "block",
        "_classes": "",
        "title": "",
        "displayTitle": "",
        "body": "",
        "_trackingId": 17
    },
    {
        "_id": "b-3020",
        "_parentId": "a-3000",
        "_type": "block",
        "_classes": "",
        "title": "",
        "displayTitle": "",
        "body": "",
        "_trackingId": 18
    },
    {
        "_id": "b-3030",
        "_parentId": "a-3000",
        "_type": "block",
        "_classes": "",
        "title": "",
        "displayTitle": "",
        "body": "",
        "_trackingId": 19
    },
    {
        "_id": "b-3040",
        "_parentId": "a-3000",
        "_type": "block",
        "_classes": "",
        "title": "",
        "displayTitle": "",
        "body": "",
        "_trackingId": 20
    },
    {
        "_id": "b-3050",
        "_parentId": "a-3000",
        "_type": "block",
        "_classes": "",
        "title": "",
        "displayTitle": "",
        "body": "",
        "_trackingId": 21
    },
    {
        "_id": "b-3060",
        "_parentId": "a-3000",
        "_type": "block",
        "_classes": "",
        "title": "",
        "displayTitle": "",
        "body": "",
        "_trackingId": 22
    },
    {
        "_id": "b-3070",
        "_parentId": "a-3000",
        "_type": "block",
        "_classes": "",
        "title": "",
        "displayTitle": "",
        "body": "",
        "_trackingId": 23
    },
    {
        "_id": "b-3080",
        "_parentId": "a-3000",
        "_type": "block",
        "_classes": "",
        "title": "",
        "displayTitle": "",
        "body": "",
        "_trackingId": 24
    },
    {
        "_id": "b-3090",
        "_parentId": "a-3000",
        "_type": "block",
        "_classes": "",
        "title": "",
        "displayTitle": "",
        "body": "",
        "_trackingId": 25
    },
    {
        "_id": "b-4000",
        "_parentId": "a-4000",
        "_type": "block",
        "_classes": "",
        "title": "",
        "displayTitle": "",
        "body": "",
        "_trackingId": 26
    },
    {
        "_id": "b-4010",
        "_parentId": "a-4000",
        "_type": "block",
        "_classes": "",
        "title": "",
        "displayTitle": "",
        "body": "",
        "_trackingId": 27
    },
    {
        "_id": "b-4020",
        "_parentId": "a-4000",
        "_type": "block",
        "_classes": "",
        "title": "",
        "displayTitle": "",
        "body": "",
        "_trackingId": 28
    },
    {
        "_id": "b-4030",
        "_parentId": "a-4000",
        "_type": "block",
        "_classes": "",
        "title": "",
        "displayTitle": "",
        "body": "",
        "_trackingId": 29
    },
    {
        "_id": "b-4090",
        "_parentId": "a-4000",
        "_type": "block",
        "_classes": "",
        "title": "",
        "displayTitle": "",
        "body": "",
        "_trackingId": 30
    },
    {
        "_id": "b-5010",
        "_parentId": "a-5000",
        "_type": "block",
        "_classes": "",
        "title": "",
        "displayTitle": "",
        "body": "",
        "_trackingId": 31
    },
    {
        "_id": "b-5020",
        "_parentId": "a-5000",
        "_type": "block",
        "_classes": "",
        "title": "",
        "displayTitle": "",
        "body": "",
        "_trackingId": 32
    },
    {
        "_id": "b-5030",
        "_parentId": "a-5000",
        "_type": "block",
        "_classes": "",
        "title": "",
        "displayTitle": "",
        "body": "",
        "_trackingId": 33
    },
    {
        "_id": "b-5040",
        "_parentId": "a-5000",
        "_type": "block",
        "_classes": "",
        "title": "",
        "displayTitle": "",
        "body": "",
        "_trackingId": 34
    },
    {
        "_id": "b-5110",
        "_parentId": "a-5000",
        "_type": "block",
        "_classes": "",
        "title": "",
        "displayTitle": "",
        "body": "",
        "_trackingId": 35
    },
    {
        "_id": "b-5120",
        "_parentId": "a-5000",
        "_type": "block",
        "_classes": "",
        "title": "",
        "displayTitle": "",
        "body": "",
        "_trackingId": 36
    },
    {
        "_id": "b-5130",
        "_parentId": "a-5000",
        "_type": "block",
        "_classes": "",
        "title": "",
        "displayTitle": "",
        "body": "",
        "_trackingId": 37
    },
    {
        "_id": "b-5140",
        "_parentId": "a-5000",
        "_type": "block",
        "_classes": "",
        "title": "",
        "displayTitle": "",
        "body": "",
        "_trackingId": 38
    },
    {
        "_id": "b-5150",
        "_parentId": "a-5000",
        "_type": "block",
        "_classes": "",
        "title": "",
        "displayTitle": "",
        "body": "",
        "_trackingId": 39
    },
    {
        "_id": "b-5160",
        "_parentId": "a-5000",
        "_type": "block",
        "_classes": "",
        "title": "",
        "displayTitle": "",
        "body": "",
        "_trackingId": 40
    },
    {
        "_id": "b-5170",
        "_parentId": "a-5000",
        "_type": "block",
        "_classes": "",
        "title": "",
        "displayTitle": "",
        "body": "",
        "_trackingId": 41
    },
    {
        "_id": "b-5200",
        "_parentId": "a-5000",
        "_type": "block",
        "_classes": "",
        "title": "",
        "displayTitle": "",
        "body": "",
        "_trackingId": 42
    },
    {
        "_id": "b-5900",
        "_parentId": "a-5000",
        "_type": "block",
        "_classes": "",
        "title": "",
        "displayTitle": "",
        "body": "",
        "_trackingId": 43
    },
    {
        "_id": "b-6010",
        "_parentId": "a-6000",
        "_type": "block",
        "_classes": "",
        "title": "",
        "displayTitle": "",
        "body": "",
        "_trackingId": 44
    },
    {
        "_id": "b-6020",
        "_parentId": "a-6000",
        "_type": "block",
        "_classes": "",
        "title": "",
        "displayTitle": "",
        "body": "",
        "_trackingId": 45
    },
    {
        "_id": "b-6040",
        "_parentId": "a-6000",
        "_type": "block",
        "_classes": "",
        "title": "",
        "displayTitle": "",
        "body": "",
        "_trackingId": 46
    },
    {
        "_id": "b-6050",
        "_parentId": "a-6000",
        "_type": "block",
        "_classes": "",
        "title": "",
        "displayTitle": "",
        "body": "",
        "_trackingId": 47
    },
    {
        "_id": "b-6060",
        "_parentId": "a-6000",
        "_type": "block",
        "_classes": "",
        "title": "",
        "displayTitle": "",
        "body": "",
        "_trackingId": 48
    },
    {
        "_id": "b-6090",
        "_parentId": "a-6000",
        "_type": "block",
        "_classes": "",
        "title": "",
        "displayTitle": "",
        "body": "",
        "_trackingId": 49
    }
]